<svg version="1.1"
	 id="Layer_1" xmlns:v="http://schemas.microsoft.com/visio/2003/SVGExtensions/" xmlns:ev="http://www.w3.org/2001/xml-events"
	 xmlns="http://www.w3.org/2000/svg" xmlns:xlink="http://www.w3.org/1999/xlink" x="0px" y="0px" width="134.02px"
	 height="83.62px" viewBox="18.243 18.241 134.02 83.62" enable-background="new 18.243 18.241 134.02 83.62" xml:space="preserve">
		
			<linearGradient id="anim"  x1="0%" y1="100%">
      <stop offset="0%" stop-color="#148F01" stop-opacity="1">
      		<animate attributeName="stop-color" 
      			values="red;rgba(255,0,0,0.3);red" dur="50ms" repeatCount="indefinite"/>
		</stop>
    </linearGradient>
        
        <g transform="translate(88.4864,-18.24)">
			<g>
				<path fill="#D7D7D7"  d="M63.777,37.481v81.62c0,0.55-0.45,1-1,1H0.996c-0.55,0-1-0.45-1-1v-10.21h-46.57c-0.55,0-1-0.45-1-1
					v-13.3h-21.67c-0.55,0-1-0.45-1-1v-30.6c0-0.551,0.45-1,1-1h40.9v-4.67c0-0.55,0.45-1,1-1h9.12v-7.5c0-0.55,0.45-1,1-1h17.22
					v-10.34c0-0.55,0.45-1,1-1h61.78C63.326,36.481,63.777,36.93,63.777,37.481z">
					
        </path>
			</g>
		</g>
</svg>
